<svg xmlns="http://www.w3.org/2000/svg" xmlns:xlink="http://www.w3.org/1999/xlink" width="1066" height="793" viewBox="0 0 1066 793">
  <defs>
    <clipPath id="clip-addCourse">
      <rect width="1066" height="793"/>
    </clipPath>
  </defs>
  <g id="addCourse" clip-path="url(#clip-addCourse)">
    <rect width="1066" height="793" fill="rgba(255,255,255,0)"/>
    <g id="Group_106" data-name="Group 106" transform="translate(-70 -134)">
      <g id="Group_99" data-name="Group 99" transform="translate(368 293)">
        <path id="Path_916" data-name="Path 916" d="M808.388,404.926a71.461,71.461,0,1,1,71.461-71.461,71.46,71.46,0,0,1-71.461,71.461Z" transform="translate(-182.686 -158.185)" fill="#f9a826"/>
        <path id="Path_917" data-name="Path 917" d="M836.585,326.417H815.438V305.27a7.049,7.049,0,0,0-14.1,0v21.148H780.192a7.049,7.049,0,0,0,0,14.1h21.147v21.147a7.049,7.049,0,1,0,14.1,0V340.515h21.147a7.049,7.049,0,0,0,0-14.1Z" transform="translate(-182.686 -158.185)" fill="#fff"/>
      </g>
      <g id="Group_41" data-name="Group 41" transform="translate(370.766 6.532)">
        <circle id="Ellipse_220" data-name="Ellipse 220" cx="55.409" cy="55.409" r="55.409" transform="translate(416.234 351.468)" fill="#ff6584"/>
        <path id="Path_1106" data-name="Path 1106" d="M469.052,399.483H450.213V380.644a4.433,4.433,0,0,0-4.433-4.433h0a4.433,4.433,0,0,0-4.433,4.433v18.839H422.508a4.433,4.433,0,0,0-4.433,4.433h0a4.433,4.433,0,0,0,4.433,4.433h18.839v18.839a4.433,4.433,0,0,0,4.433,4.433h0a4.433,4.433,0,0,0,4.433-4.433V408.349h18.839a4.433,4.433,0,0,0,4.433-4.433h0A4.433,4.433,0,0,0,469.052,399.483Z" transform="translate(25.6 2.741)" fill="#fff"/>
      </g>
      <ellipse id="Ellipse_246" data-name="Ellipse 246" cx="450.5" cy="88.5" rx="450.5" ry="88.5" transform="translate(163.705 701.389)" fill="#57b894"/>
      <g id="undraw_camping_noc8" transform="translate(354.898 468.345)">
        <path id="Path_7" data-name="Path 7" d="M730.88,602.306l-114.459-4.827-60.362,6.862L452.934,616.063l-38.808,4.408c-90.611,36.011-92.667,33.463-92.392,32.6l.007-.008,13.4-48.719L292.8,564.93l-.23-.2-55.616-10.1a4.884,4.884,0,0,1-3.579-3.3,6.472,6.472,0,0,1,.461-5.368l84.7-144.854,44.512-76.1,4.827-8.262,185.162-3.049L733.816,595.532a4.893,4.893,0,0,1,.332,4.5,3.5,3.5,0,0,1-3.269,2.278Z" transform="translate(-191.693 -287.283)" fill="#f9a826"/>
        <path id="Path_8" data-name="Path 8" d="M316.149,244.646l-54.315,177.68-12.361,79.124-43.38-38.908,13.8-43.669,43.385-177.855Z" transform="translate(-105.51 -185.579)" opacity="0.2"/>
        <path id="Path_9" data-name="Path 9" d="M397.141,462.565C384.44,493.1,379.943,518.6,364.878,514c-20.626-6.3,1.031-28.607,13.732-59.14s21.676-53.956,32.263-51.432C430.612,408.129,409.842,432.031,397.141,462.565Z" transform="translate(-255.919 -283.159)" fill="#3f3d56"/>
        <path id="Path_10" data-name="Path 10" d="M406.971,401.447c-.009-8.5-4.371-15.377-9.744-15.363a6.251,6.251,0,0,0-.652.04l-9.181-1.791a6.6,6.6,0,0,0-3.282-.891,6.27,6.27,0,0,0-.915.072l-.354-.069-.009.137c-4.434.941-7.89,6.543-8.377,13.577s2.121,13.685,6.321,16.122l-.019.277.9.16a6.417,6.417,0,0,0,2.481.5c.093,0,.185-.007.277-.012l9.385,1.663a6.647,6.647,0,0,0,3.453.992,6.28,6.28,0,0,0,1.315-.147l.8.142,0-.371C403.822,414.9,406.977,408.653,406.971,401.447Z" transform="matrix(0.999, 0.035, -0.035, 0.999, -227.421, -283.235)" fill="#f9a826"/>
        <path id="Path_11" data-name="Path 11" d="M407.99,401.447c-.009-8.5-4.508-15.377-10.049-15.363a6.646,6.646,0,0,0-.673.04l-9.468-1.791a6.969,6.969,0,0,0-3.385-.891,6.665,6.665,0,0,0-.944.072l-.365-.069-.01.137c-4.572.941-8.137,6.543-8.639,13.577s2.188,13.685,6.519,16.122l-.02.277.931.16a6.8,6.8,0,0,0,2.559.5c.1,0,.19-.007.286-.012l9.679,1.663a7.015,7.015,0,0,0,3.561.992,6.67,6.67,0,0,0,1.356-.147l.825.142,0-.371c4.583-1.582,7.838-7.831,7.831-15.036Z" transform="translate(-242.637 -270.175)" fill="#fff" opacity="0.2"/>
        <path id="Path_13" data-name="Path 13" d="M359.861,658.414,357.925,658c.938-2.737,94.186-274.226,126.561-320.024l1.75.779C453.981,384.378,360.8,655.679,359.861,658.414Z" transform="translate(-260.889 -286.283)" fill="#3f3d56"/>
        <g id="Group_67" data-name="Group 67" transform="translate(90.203 357.16)">
          <ellipse id="Ellipse_8" data-name="Ellipse 8" cx="7.025" cy="9.032" rx="7.025" ry="9.032" transform="translate(0 0.023) rotate(-0.092)" fill="#3f3d56"/>
        </g>
        <g id="Group_66" data-name="Group 66" transform="translate(8.123 53.294)">
          <path id="Path_12" data-name="Path 12" d="M220.413,611.653l-1.777-.933C264.16,523.951,392.921,338.558,394.216,336.7l1.648,1.146C394.569,339.7,265.879,524.994,220.413,611.653Z" transform="translate(-211.816 -336.696)" fill="#3f3d56"/>
          <ellipse id="Ellipse_9" data-name="Ellipse 9" cx="7.025" cy="9.032" rx="7.025" ry="9.032" transform="translate(0 265.834) rotate(-0.092)" fill="#3f3d56"/>
        </g>
        <g id="Group_68" data-name="Group 68" transform="translate(314.553 8.861)">
          <g id="Group_69" data-name="Group 69">
            <path id="Path_14" data-name="Path 14" d="M944.853,661.686c-41.829-78.588-199.794-321.98-201.385-324.43l1.357-1.146c1.591,2.45,159.6,245.913,201.471,324.577Z" transform="translate(-743.468 -336.11)" fill="#3f3d56"/>
            <ellipse id="Ellipse_10" data-name="Ellipse 10" cx="7.025" cy="9.032" rx="7.025" ry="9.032" transform="translate(193.922 317.708) rotate(-0.092)" fill="#3f3d56"/>
          </g>
        </g>
        <path id="Path_15" data-name="Path 15" d="M386.414,346.658l378.621,4.057A117.212,117.212,0,0,0,647.769,234.5l-144.5.232c-60.439.1-111.615,47.362-116.507,107.6Z" transform="translate(-303.086 -234.5)" fill="#3f3d56"/>
        <path id="Path_16" data-name="Path 16" d="M713.682,471.814H580.249a12.96,12.96,0,0,0-8.734,3.288,10.533,10.533,0,0,0-3.541,7.922l.116,8.808,1.186,94.294.019,1.819.039,3,.039,2.933.222,17.677c.076,5.979,5.391,10.827,12.015,10.958.328,0,.665-.009,1-.026l31.685-1.741,45.841-2.524,16.18-.888,3.606-.2,25.215-1.384h.01l9.276-.514c6.476-.363,11.525-5.206,11.533-11.062V482.894c-.007-6.116-5.5-11.073-12.275-11.08Z" transform="translate(-335.804 -305.617)" opacity="0.2"/>
        <path id="Path_17" data-name="Path 17" d="M747.581,454.119a3.4,3.4,0,0,0-2.519,1.444l-15.247.025v-4.044a12.744,12.744,0,0,0-12.73-12.73H578.7a12.719,12.719,0,0,0-12.73,12.88l.049,4.157-9.834.016a3.043,3.043,0,0,0-2.065-.957c-3.447.006-6.229,7.532-6.214,16.811s2.821,16.8,6.268,16.791a3.766,3.766,0,0,0,2.888-1.925l188.044-.3a3.4,3.4,0,0,0,2.524,1.436c3.447-.006,6.228-7.532,6.214-16.812S751.027,454.114,747.581,454.119Z" transform="translate(-336.83 -285.809)" fill="#f9a826"/>
        <path id="Path_18" data-name="Path 18" d="M747.581,454.119a3.4,3.4,0,0,0-2.519,1.444l-15.247.025v-4.044a12.744,12.744,0,0,0-12.73-12.73H578.7a12.719,12.719,0,0,0-12.73,12.88l.049,4.157-9.833.016a3.043,3.043,0,0,0-2.065-.957c-3.447.006-6.228,7.532-6.214,16.811s2.821,16.8,6.268,16.791a3.766,3.766,0,0,0,2.888-1.925l188.044-.3a3.4,3.4,0,0,0,2.524,1.436c3.447-.006,6.228-7.532,6.214-16.812S751.027,454.114,747.581,454.119Z" transform="translate(-342.83 -268.809)" fill="#fff" opacity="0.2"/>
        <path id="Path_32" data-name="Path 32" d="M726.169,616.784v7.11a12.568,12.568,0,0,1-11.545,12.71l-131.951,8.33a12.029,12.029,0,0,1-9.116-3.384,12.935,12.935,0,0,1-3.915-9.176l-.319-29.22,79.817-1.34Z" transform="translate(-336.016 -327.617)" fill="#3f3d56"/>
      </g>
      <path id="Path_1141" data-name="Path 1141" d="M656.71,148.691c-41.5,27.261-95.328,25.5-142.5,11.315s-90.5-39.444-136.46-57.393a466.987,466.987,0,0,0-119.9-29.324C199.279,67,133.867,74.662,93.058,118.753c-45.448,49.075-41.957,137.611,7.178,182.7,25.008,22.917,57.75,34.165,86.3,52.056s55,47.585,52.572,82.1c-2.252,31.993-28.426,56.509-55.515,71.908-20.934,11.9-46.713,24.887-49.234,49.53C131.92,580.889,153.6,599.571,174.3,610.2c67.53,34.67,150.745,34.333,218.042-.842,23.994-12.587,46.031-29.29,71.2-39.04,66.086-25.7,138.91.177,208.889,9.632a444.021,444.021,0,0,0,177.664-12.132c34.653-9.606,69.441-24.289,93.785-51.643,17.56-19.726,28.5-44.681,38.763-69.34q16.421-39.427,31.576-79.418c6.057-16,12.024-32.313,13.594-49.437,2.836-31.025-9.116-61.7-25.393-87.879-38.646-62.218-103.736-105.93-174.227-117.035S683.126,123.644,628.454,171.1" transform="translate(36.934 186.679)" fill="#f9a826" opacity="0.1"/>
      <g id="Group_104" data-name="Group 104" transform="matrix(1, -0.017, 0.017, 1, -755.089, 190.078)">
        <path id="Path_444" data-name="Path 444" d="M1096.05,623.183c0,59.806-35.548,80.68-79.41,80.68-1.014,0-2.028-.011-3.031-.032-2.038-.043-4.045-.139-6.04-.288-39.583-2.785-70.329-24.738-70.329-80.36,0-57.575,73.615-130.252,79.08-135.566l.011-.011c.2-.2.31-.3.31-.3S1096.05,563.387,1096.05,623.183Z" transform="translate(-42.647 -66.304)" fill="#ff6584"/>
        <path id="Path_445" data-name="Path 445" d="M1013.75,694.717l29.049-40.575-29.113,45.025-.075,4.664c-2.038-.043-4.045-.139-6.04-.288l3.127-59.817-.021-.47.053-.085.3-5.645-29.188-45.143,29.273,40.906.075,1.2,2.358-45.207L988.564,542.63l25.293,38.707,2.465-93.721.011-.309v.3l-.416,73.914,24.877-29.295-24.983,35.666-.651,40.468,23.222-38.835-23.318,44.79-.363,22.507,33.713-54.064-33.843,61.908Z" transform="translate(-42.647 -66.304)" fill="#3f3d56"/>
      </g>
      <g id="Group_105" data-name="Group 105" transform="translate(-549 147.998)">
        <g id="Group_101" data-name="Group 101">
          <path id="Path_448" data-name="Path 448" d="M937.049,722.933c0,28.926-17.193,39.022-38.408,39.022-.49,0-.981-.005-1.466-.015-.986-.021-1.956-.067-2.921-.139-19.145-1.347-34.015-11.965-34.015-38.867,0-27.847,35.6-63,38.248-65.568l.005-.005c.1-.1.15-.145.15-.145S937.049,694.012,937.049,722.933Z" transform="translate(-40.647 -68.304)" fill="#f9a826"/>
        </g>
        <path id="Path_449" data-name="Path 449" d="M897.242,757.531l14.05-19.624-14.081,21.777-.036,2.256c-.986-.021-1.956-.067-2.921-.139l1.512-28.931-.01-.227.026-.041.145-2.73-14.117-21.834,14.158,19.784.036.578,1.141-21.865-12.083-22.561,12.233,18.721,1.192-45.329.005-.15v.145l-.2,35.749,12.032-14.169-12.083,17.25-.315,19.573,11.232-18.783-11.278,21.663L897.7,729.53l16.305-26.149L897.64,733.323Z" transform="translate(-42.647 -66.304)" fill="#3f3d56"/>
      </g>
    </g>
  </g>
</svg>
